module github.com/NVIDIA/nvidia-container-toolkit

go 1.14

require (
	github.com/BurntSushi/toml v0.3.1
	github.com/containers/podman/v2 v2.2.1
	github.com/opencontainers/runtime-spec v1.0.3-0.20211101234015-a3c33d663ebc
	github.com/pelletier/go-toml v1.9.3
	github.com/sirupsen/logrus v1.8.1
	github.com/stretchr/testify v1.7.0
	github.com/tsaikd/KDGoLib v0.0.0-20191001134900-7f3cf518e07d
	github.com/urfave/cli/v2 v2.3.0
	golang.org/x/mod v0.3.0
	golang.org/x/sys v0.0.0-20210426230700-d19ff857e887
)
